test.vcd
$date
	Mon Jul  1 22:40:17 2024
$end
$version
	Icarus Verilog
$end
$timescale
	1s
$end
$scope module bpcache_tb $end
$var reg 1 ! clk $end
$upscope $end
$scope module bpcache_tb $end
$var reg 8 " addr [7:0] $end
$upscope $end
$scope module bpcache_tb $end
$var reg 8 # w_addr [7:0] $end
$upscope $end
$scope module bpcache_tb $end
$var reg 1 $ did_branch $end
$upscope $end
$scope module bpcache_tb $end
$var reg 1 % we $end
$upscope $end
$scope module bpcache_tb $end
$var wire 1 & branch $end
$upscope $end
$scope module bpcache_tb $end
$var reg 2 ' dbg [1:0] $end
$upscope $end
$scope module bpcache_tb $end
$var reg 1 ( dbg2 $end
$upscope $end
$enddefinitions $end
$comment Show the parameter values. $end
$dumpall
$end
#0
$dumpvars
x(
bx '
0&
0%
0$
b0 #
bx "
0!
$end
#5
1!
#10
0!
#15
1!
#20
0!
#25
1!
#30
0!
#35
x&
1!
#40
b1 '
b0 "
0!
#45
0&
1!
#50
0(
b1 "
0!
#55
1!
#60
b10 "
0!
#65
1!
#70
b11 "
0!
#75
1!
#80
b100 "
0!
#85
1!
#90
b101 "
0!
#95
1!
#100
b110 "
0!
#105
1!
#110
b111 "
0!
#115
1!
#120
b1000 "
0!
#125
1!
#130
b1001 "
0!
#135
1!
#140
b1010 "
0!
#145
1!
#150
b1011 "
0!
#155
1!
#160
b1100 "
0!
#165
1!
#170
b1101 "
0!
#175
1!
#180
b1110 "
0!
#185
1!
#190
b1111 "
0!
#195
1!
#200
b10000 "
0!
#205
1!
#210
b10001 "
0!
#215
1!
#220
b10010 "
0!
#225
1!
#230
b10011 "
0!
#235
1!
#240
b10100 "
0!
#245
1!
#250
b10101 "
0!
#255
1!
#260
b10110 "
0!
#265
1!
#270
b10111 "
0!
#275
1!
#280
b11000 "
0!
#285
1!
#290
b11001 "
0!
#295
1!
#300
b11010 "
0!
#305
1!
#310
b11011 "
0!
#315
1!
#320
b11100 "
0!
#325
1!
#330
b11101 "
0!
#335
1!
#340
b11110 "
0!
#345
1!
#350
b11111 "
0!
#355
1!
#360
b100000 "
0!
#365
1!
#370
b100001 "
0!
#375
1!
#380
b100010 "
0!
#385
1!
#390
b100011 "
0!
#395
1!
#400
b100100 "
0!
#405
1!
#410
b100101 "
0!
#415
1!
#420
b100110 "
0!
#425
1!
#430
b100111 "
0!
#435
1!
#440
b101000 "
0!
#445
1!
#450
b101001 "
0!
#455
1!
#460
b101010 "
0!
#465
1!
#470
b101011 "
0!
#475
1!
#480
b101100 "
0!
#485
1!
#490
b101101 "
0!
#495
1!
#500
b101110 "
0!
#505
1!
#510
b101111 "
0!
#515
1!
#520
b110000 "
0!
#525
1!
#530
b110001 "
0!
#535
1!
#540
b110010 "
0!
#545
1!
#550
b110011 "
0!
#555
1!
#560
b110100 "
0!
#565
1!
#570
b110101 "
0!
#575
1!
#580
b110110 "
0!
#585
1!
#590
b110111 "
0!
#595
1!
#600
b111000 "
0!
#605
1!
#610
b111001 "
0!
#615
1!
#620
b111010 "
0!
#625
1!
#630
b111011 "
0!
#635
1!
#640
b111100 "
0!
#645
1!
#650
b111101 "
0!
#655
1!
#660
b111110 "
0!
#665
1!
#670
b111111 "
0!
#675
1!
#680
b1000000 "
0!
#685
1!
#690
b1000001 "
0!
#695
1!
#700
b1000010 "
0!
#705
1!
#710
b1000011 "
0!
#715
1!
#720
b1000100 "
0!
#725
1!
#730
b1000101 "
0!
#735
1!
#740
b1000110 "
0!
#745
1!
#750
b1000111 "
0!
#755
1!
#760
b1001000 "
0!
#765
1!
#770
b1001001 "
0!
#775
1!
#780
b1001010 "
0!
#785
1!
#790
b1001011 "
0!
#795
1!
#800
b1001100 "
0!
#805
1!
#810
b1001101 "
0!
#815
1!
#820
b1001110 "
0!
#825
1!
#830
b1001111 "
0!
#835
1!
#840
b1010000 "
0!
#845
1!
#850
b1010001 "
0!
#855
1!
#860
b1010010 "
0!
#865
1!
#870
b1010011 "
0!
#875
1!
#880
b1010100 "
0!
#885
1!
#890
b1010101 "
0!
#895
1!
#900
b1010110 "
0!
#905
1!
#910
b1010111 "
0!
#915
1!
#920
b1011000 "
0!
#925
1!
#930
b1011001 "
0!
#935
1!
#940
b1011010 "
0!
#945
1!
#950
b1011011 "
0!
#955
1!
#960
b1011100 "
0!
#965
1!
#970
b1011101 "
0!
#975
1!
#980
b1011110 "
0!
#985
1!
#990
b1011111 "
0!
#995
1!
#1000
b1100000 "
0!
#1005
1!
#1010
b1100001 "
0!
#1015
1!
#1020
b1100010 "
0!
#1025
1!
#1030
b1100011 "
0!
#1035
1!
#1040
b1100100 "
0!
#1045
1!
#1050
b1100101 "
0!
#1055
1!
#1060
b1100110 "
0!
#1065
1!
#1070
b1100111 "
0!
#1075
1!
#1080
b1101000 "
0!
#1085
1!
#1090
b1101001 "
0!
#1095
1!
#1100
b1101010 "
0!
#1105
1!
#1110
b1101011 "
0!
#1115
1!
#1120
b1101100 "
0!
#1125
1!
#1130
b1101101 "
0!
#1135
1!
#1140
b1101110 "
0!
#1145
1!
#1150
b1101111 "
0!
#1155
1!
#1160
b1110000 "
0!
#1165
1!
#1170
b1110001 "
0!
#1175
1!
#1180
b1110010 "
0!
#1185
1!
#1190
b1110011 "
0!
#1195
1!
#1200
b1110100 "
0!
#1205
1!
#1210
b1110101 "
0!
#1215
1!
#1220
b1110110 "
0!
#1225
1!
#1230
b1110111 "
0!
#1235
1!
#1240
b1111000 "
0!
#1245
1!
#1250
b1111001 "
0!
#1255
1!
#1260
b1111010 "
0!
#1265
1!
#1270
b1111011 "
0!
#1275
1!
#1280
b1111100 "
0!
#1285
1!
#1290
b1111101 "
0!
#1295
1!
#1300
b1111110 "
0!
#1305
1!
#1310
b1111111 "
0!
#1315
1!
#1320
b10000000 "
0!
#1325
1!
#1330
b10000001 "
0!
#1335
1!
#1340
b10000010 "
0!
#1345
1!
#1350
b10000011 "
0!
#1355
1!
#1360
b10000100 "
0!
#1365
1!
#1370
b10000101 "
0!
#1375
1!
#1380
b10000110 "
0!
#1385
1!
#1390
b10000111 "
0!
#1395
1!
#1400
b10001000 "
0!
#1405
1!
#1410
b10001001 "
0!
#1415
1!
#1420
b10001010 "
0!
#1425
1!
#1430
b10001011 "
0!
#1435
1!
#1440
b10001100 "
0!
#1445
1!
#1450
b10001101 "
0!
#1455
1!
#1460
b10001110 "
0!
#1465
1!
#1470
b10001111 "
0!
#1475
1!
#1480
b10010000 "
0!
#1485
1!
#1490
b10010001 "
0!
#1495
1!
#1500
b10010010 "
0!
#1505
1!
#1510
b10010011 "
0!
#1515
1!
#1520
b10010100 "
0!
#1525
1!
#1530
b10010101 "
0!
#1535
1!
#1540
b10010110 "
0!
#1545
1!
#1550
b10010111 "
0!
#1555
1!
#1560
b10011000 "
0!
#1565
1!
#1570
b10011001 "
0!
#1575
1!
#1580
b10011010 "
0!
#1585
1!
#1590
b10011011 "
0!
#1595
1!
#1600
b10011100 "
0!
#1605
1!
#1610
b10011101 "
0!
#1615
1!
#1620
b10011110 "
0!
#1625
1!
#1630
b10011111 "
0!
#1635
1!
#1640
b10100000 "
0!
#1645
1!
#1650
b10100001 "
0!
#1655
1!
#1660
b10100010 "
0!
#1665
1!
#1670
b10100011 "
0!
#1675
1!
#1680
b10100100 "
0!
#1685
1!
#1690
b10100101 "
0!
#1695
1!
#1700
b10100110 "
0!
#1705
1!
#1710
b10100111 "
0!
#1715
1!
#1720
b10101000 "
0!
#1725
1!
#1730
b10101001 "
0!
#1735
1!
#1740
b10101010 "
0!
#1745
1!
#1750
b10101011 "
0!
#1755
1!
#1760
b10101100 "
0!
#1765
1!
#1770
b10101101 "
0!
#1775
1!
#1780
b10101110 "
0!
#1785
1!
#1790
b10101111 "
0!
#1795
1!
#1800
b10110000 "
0!
#1805
1!
#1810
b10110001 "
0!
#1815
1!
#1820
b10110010 "
0!
#1825
1!
#1830
b10110011 "
0!
#1835
1!
#1840
b10110100 "
0!
#1845
1!
#1850
b10110101 "
0!
#1855
1!
#1860
b10110110 "
0!
#1865
1!
#1870
b10110111 "
0!
#1875
1!
#1880
b10111000 "
0!
#1885
1!
#1890
b10111001 "
0!
#1895
1!
#1900
b10111010 "
0!
#1905
1!
#1910
b10111011 "
0!
#1915
1!
#1920
b10111100 "
0!
#1925
1!
#1930
b10111101 "
0!
#1935
1!
#1940
b10111110 "
0!
#1945
1!
#1950
b10111111 "
0!
#1955
1!
#1960
b11000000 "
0!
#1965
1!
#1970
b11000001 "
0!
#1975
1!
#1980
b11000010 "
0!
#1985
1!
#1990
b11000011 "
0!
#1995
1!
#2000
b11000100 "
0!
#2005
1!
#2010
b11000101 "
0!
#2015
1!
#2020
b11000110 "
0!
#2025
1!
#2030
b11000111 "
0!
#2035
1!
#2040
b11001000 "
0!
#2045
1!
#2050
b11001001 "
0!
#2055
1!
#2060
b11001010 "
0!
#2065
1!
#2070
b11001011 "
0!
#2075
1!
#2080
b11001100 "
0!
#2085
1!
#2090
b11001101 "
0!
#2095
1!
#2100
b11001110 "
0!
#2105
1!
#2110
b11001111 "
0!
#2115
1!
#2120
b11010000 "
0!
#2125
1!
#2130
b11010001 "
0!
#2135
1!
#2140
b11010010 "
0!
#2145
1!
#2150
b11010011 "
0!
#2155
1!
#2160
b11010100 "
0!
#2165
1!
#2170
b11010101 "
0!
#2175
1!
#2180
b11010110 "
0!
#2185
1!
#2190
b11010111 "
0!
#2195
1!
#2200
b11011000 "
0!
#2205
1!
#2210
b11011001 "
0!
#2215
1!
#2220
b11011010 "
0!
#2225
1!
#2230
b11011011 "
0!
#2235
1!
#2240
b11011100 "
0!
#2245
1!
#2250
b11011101 "
0!
#2255
1!
#2260
b11011110 "
0!
#2265
1!
#2270
b11011111 "
0!
#2275
1!
#2280
b11100000 "
0!
#2285
1!
#2290
b11100001 "
0!
#2295
1!
#2300
b11100010 "
0!
#2305
1!
#2310
b11100011 "
0!
#2315
1!
#2320
b11100100 "
0!
#2325
1!
#2330
b11100101 "
0!
#2335
1!
#2340
b11100110 "
0!
#2345
1!
#2350
b11100111 "
0!
#2355
1!
#2360
b11101000 "
0!
#2365
1!
#2370
b11101001 "
0!
#2375
1!
#2380
b11101010 "
0!
#2385
1!
#2390
b11101011 "
0!
#2395
1!
#2400
b11101100 "
0!
#2405
1!
#2410
b11101101 "
0!
#2415
1!
#2420
b11101110 "
0!
#2425
1!
#2430
b11101111 "
0!
#2435
1!
#2440
b11110000 "
0!
#2445
1!
#2450
b11110001 "
0!
#2455
1!
#2460
b11110010 "
0!
#2465
1!
#2470
b11110011 "
0!
#2475
1!
#2480
b11110100 "
0!
#2485
1!
#2490
b11110101 "
0!
#2495
1!
#2500
b11110110 "
0!
#2505
1!
#2510
b11110111 "
0!
#2515
1!
#2520
b11111000 "
0!
#2525
1!
#2530
b11111001 "
0!
#2535
1!
#2540
b11111010 "
0!
#2545
1!
#2550
b11111011 "
0!
#2555
1!
#2560
b11111100 "
0!
#2565
1!
#2570
b11111101 "
0!
#2575
1!
#2580
b11111110 "
0!
#2585
1!
#2590
0!
#2595
1!
#2600
1%
1$
0!
#2605
1!
#2610
b10 '
b0 "
0%
0!
#2615
1&
1!
#2620
1%
0$
0!
#2625
1(
b1 '
1!
#2630
0%
0!
#2635
0&
1!
#2640
1%
1$
b1 #
0!
#2645
1!
#2650
0(
b10 '
b1 "
0%
0!
#2655
1&
1!
#2660
1%
0$
0!
#2665
1(
b1 '
1!
#2670
0%
0!
#2675
0&
1!
#2680
1%
1$
b10 #
0!
#2685
1!
#2690
0(
b10 '
b10 "
0%
0!
#2695
1&
1!
#2700
1%
0$
0!
#2705
1(
b1 '
1!
#2710
0%
0!
#2715
0&
1!
#2720
1%
1$
b11 #
0!
#2725
1!
#2730
0(
b10 '
b11 "
0%
0!
#2735
1&
1!
#2740
1%
0$
0!
#2745
1(
b1 '
1!
#2750
0%
0!
#2755
0&
1!
#2760
1%
1$
b100 #
0!
#2765
1!
#2770
0(
b10 '
b100 "
0%
0!
#2775
1&
1!
#2780
1%
0$
0!
#2785
1(
b1 '
1!
#2790
0%
0!
#2795
0&
1!
#2800
1%
1$
b101 #
0!
#2805
1!
#2810
0(
b10 '
b101 "
0%
0!
#2815
1&
1!
#2820
1%
0$
0!
#2825
1(
b1 '
1!
#2830
0%
0!
#2835
0&
1!
#2840
1%
1$
b110 #
0!
#2845
1!
#2850
0(
b10 '
b110 "
0%
0!
#2855
1&
1!
#2860
1%
0$
0!
#2865
1(
b1 '
1!
#2870
0%
0!
#2875
0&
1!
#2880
1%
1$
b111 #
0!
#2885
1!
#2890
0(
b10 '
b111 "
0%
0!
#2895
1&
1!
#2900
1%
0$
0!
#2905
1(
b1 '
1!
#2910
0%
0!
#2915
0&
1!
#2920
1%
1$
b1000 #
0!
#2925
1!
#2930
0(
b10 '
b1000 "
0%
0!
#2935
1&
1!
#2940
1%
0$
0!
#2945
1(
b1 '
1!
#2950
0%
0!
#2955
0&
1!
#2960
1%
1$
b1001 #
0!
#2965
1!
#2970
0(
b10 '
b1001 "
0%
0!
#2975
1&
1!
#2980
1%
0$
0!
#2985
1(
b1 '
1!
#2990
0%
0!
#2995
0&
1!
#3000
1%
1$
b1010 #
0!
#3005
1!
#3010
0(
b10 '
b1010 "
0%
0!
#3015
1&
1!
#3020
1%
0$
0!
#3025
1(
b1 '
1!
#3030
0%
0!
#3035
0&
1!
#3040
1%
1$
b1011 #
0!
#3045
1!
#3050
0(
b10 '
b1011 "
0%
0!
#3055
1&
1!
#3060
1%
0$
0!
#3065
1(
b1 '
1!
#3070
0%
0!
#3075
0&
1!
#3080
1%
1$
b1100 #
0!
#3085
1!
#3090
0(
b10 '
b1100 "
0%
0!
#3095
1&
1!
#3100
1%
0$
0!
#3105
1(
b1 '
1!
#3110
0%
0!
#3115
0&
1!
#3120
1%
1$
b1101 #
0!
#3125
1!
#3130
0(
b10 '
b1101 "
0%
0!
#3135
1&
1!
#3140
1%
0$
0!
#3145
1(
b1 '
1!
#3150
0%
0!
#3155
0&
1!
#3160
1%
1$
b1110 #
0!
#3165
1!
#3170
0(
b10 '
b1110 "
0%
0!
#3175
1&
1!
#3180
1%
0$
0!
#3185
1(
b1 '
1!
#3190
0%
0!
#3195
0&
1!
#3200
1%
1$
b1111 #
0!
#3205
1!
#3210
0(
b10 '
b1111 "
0%
0!
#3215
1&
1!
#3220
1%
0$
0!
#3225
1(
b1 '
1!
#3230
0%
0!
#3235
0&
1!
#3240
1%
1$
b10000 #
0!
#3245
1!
#3250
0(
b10 '
b10000 "
0%
0!
#3255
1&
1!
#3260
1%
0$
0!
#3265
1(
b1 '
1!
#3270
0%
0!
#3275
0&
1!
#3280
1%
1$
b10001 #
0!
#3285
1!
#3290
0(
b10 '
b10001 "
0%
0!
#3295
1&
1!
#3300
1%
0$
0!
#3305
1(
b1 '
1!
#3310
0%
0!
#3315
0&
1!
#3320
1%
1$
b10010 #
0!
#3325
1!
#3330
0(
b10 '
b10010 "
0%
0!
#3335
1&
1!
#3340
1%
0$
0!
#3345
1(
b1 '
1!
#3350
0%
0!
#3355
0&
1!
#3360
1%
1$
b10011 #
0!
#3365
1!
#3370
0(
b10 '
b10011 "
0%
0!
#3375
1&
1!
#3380
1%
0$
0!
#3385
1(
b1 '
1!
#3390
0%
0!
#3395
0&
1!
#3400
1%
1$
b10100 #
0!
#3405
1!
#3410
0(
b10 '
b10100 "
0%
0!
#3415
1&
1!
#3420
1%
0$
0!
#3425
1(
b1 '
1!
#3430
0%
0!
#3435
0&
1!
#3440
1%
1$
b10101 #
0!
#3445
1!
#3450
0(
b10 '
b10101 "
0%
0!
#3455
1&
1!
#3460
1%
0$
0!
#3465
1(
b1 '
1!
#3470
0%
0!
#3475
0&
1!
#3480
1%
1$
b10110 #
0!
#3485
1!
#3490
0(
b10 '
b10110 "
0%
0!
#3495
1&
1!
#3500
1%
0$
0!
#3505
1(
b1 '
1!
#3510
0%
0!
#3515
0&
1!
#3520
1%
1$
b10111 #
0!
#3525
1!
#3530
0(
b10 '
b10111 "
0%
0!
#3535
1&
1!
#3540
1%
0$
0!
#3545
1(
b1 '
1!
#3550
0%
0!
#3555
0&
1!
#3560
1%
1$
b11000 #
0!
#3565
1!
#3570
0(
b10 '
b11000 "
0%
0!
#3575
1&
1!
#3580
1%
0$
0!
#3585
1(
b1 '
1!
#3590
0%
0!
#3595
0&
1!
#3600
1%
1$
b11001 #
0!
#3605
1!
#3610
0(
b10 '
b11001 "
0%
0!
#3615
1&
1!
#3620
1%
0$
0!
#3625
1(
b1 '
1!
#3630
0%
0!
#3635
0&
1!
#3640
1%
1$
b11010 #
0!
#3645
1!
#3650
0(
b10 '
b11010 "
0%
0!
#3655
1&
1!
#3660
1%
0$
0!
#3665
1(
b1 '
1!
#3670
0%
0!
#3675
0&
1!
#3680
1%
1$
b11011 #
0!
#3685
1!
#3690
0(
b10 '
b11011 "
0%
0!
#3695
1&
1!
#3700
1%
0$
0!
#3705
1(
b1 '
1!
#3710
0%
0!
#3715
0&
1!
#3720
1%
1$
b11100 #
0!
#3725
1!
#3730
0(
b10 '
b11100 "
0%
0!
#3735
1&
1!
#3740
1%
0$
0!
#3745
1(
b1 '
1!
#3750
0%
0!
#3755
0&
1!
#3760
1%
1$
b11101 #
0!
#3765
1!
#3770
0(
b10 '
b11101 "
0%
0!
#3775
1&
1!
#3780
1%
0$
0!
#3785
1(
b1 '
1!
#3790
0%
0!
#3795
0&
1!
#3800
1%
1$
b11110 #
0!
#3805
1!
#3810
0(
b10 '
b11110 "
0%
0!
#3815
1&
1!
#3820
1%
0$
0!
#3825
1(
b1 '
1!
#3830
0%
0!
#3835
0&
1!
#3840
1%
1$
b11111 #
0!
#3845
1!
#3850
0(
b10 '
b11111 "
0%
0!
#3855
1&
1!
#3860
1%
0$
0!
#3865
1(
b1 '
1!
#3870
0%
0!
#3875
0&
1!
#3880
1%
1$
b100000 #
0!
#3885
1!
#3890
0(
b10 '
b100000 "
0%
0!
#3895
1&
1!
#3900
1%
0$
0!
#3905
1(
b1 '
1!
#3910
0%
0!
#3915
0&
1!
#3920
1%
1$
b100001 #
0!
#3925
1!
#3930
0(
b10 '
b100001 "
0%
0!
#3935
1&
1!
#3940
1%
0$
0!
#3945
1(
b1 '
1!
#3950
0%
0!
#3955
0&
1!
#3960
1%
1$
b100010 #
0!
#3965
1!
#3970
0(
b10 '
b100010 "
0%
0!
#3975
1&
1!
#3980
1%
0$
0!
#3985
1(
b1 '
1!
#3990
0%
0!
#3995
0&
1!
#4000
1%
1$
b100011 #
0!
#4005
1!
#4010
0(
b10 '
b100011 "
0%
0!
#4015
1&
1!
#4020
1%
0$
0!
#4025
1(
b1 '
1!
#4030
0%
0!
#4035
0&
1!
#4040
1%
1$
b100100 #
0!
#4045
1!
#4050
0(
b10 '
b100100 "
0%
0!
#4055
1&
1!
#4060
1%
0$
0!
#4065
1(
b1 '
1!
#4070
0%
0!
#4075
0&
1!
#4080
1%
1$
b100101 #
0!
#4085
1!
#4090
0(
b10 '
b100101 "
0%
0!
#4095
1&
1!
#4100
1%
0$
0!
#4105
1(
b1 '
1!
#4110
0%
0!
#4115
0&
1!
#4120
1%
1$
b100110 #
0!
#4125
1!
#4130
0(
b10 '
b100110 "
0%
0!
#4135
1&
1!
#4140
1%
0$
0!
#4145
1(
b1 '
1!
#4150
0%
0!
#4155
0&
1!
#4160
1%
1$
b100111 #
0!
#4165
1!
#4170
0(
b10 '
b100111 "
0%
0!
#4175
1&
1!
#4180
1%
0$
0!
#4185
1(
b1 '
1!
#4190
0%
0!
#4195
0&
1!
#4200
1%
1$
b101000 #
0!
#4205
1!
#4210
0(
b10 '
b101000 "
0%
0!
#4215
1&
1!
#4220
1%
0$
0!
#4225
1(
b1 '
1!
#4230
0%
0!
#4235
0&
1!
#4240
1%
1$
b101001 #
0!
#4245
1!
#4250
0(
b10 '
b101001 "
0%
0!
#4255
1&
1!
#4260
1%
0$
0!
#4265
1(
b1 '
1!
#4270
0%
0!
#4275
0&
1!
#4280
1%
1$
b101010 #
0!
#4285
1!
#4290
0(
b10 '
b101010 "
0%
0!
#4295
1&
1!
#4300
1%
0$
0!
#4305
1(
b1 '
1!
#4310
0%
0!
#4315
0&
1!
#4320
1%
1$
b101011 #
0!
#4325
1!
#4330
0(
b10 '
b101011 "
0%
0!
#4335
1&
1!
#4340
1%
0$
0!
#4345
1(
b1 '
1!
#4350
0%
0!
#4355
0&
1!
#4360
1%
1$
b101100 #
0!
#4365
1!
#4370
0(
b10 '
b101100 "
0%
0!
#4375
1&
1!
#4380
1%
0$
0!
#4385
1(
b1 '
1!
#4390
0%
0!
#4395
0&
1!
#4400
1%
1$
b101101 #
0!
#4405
1!
#4410
0(
b10 '
b101101 "
0%
0!
#4415
1&
1!
#4420
1%
0$
0!
#4425
1(
b1 '
1!
#4430
0%
0!
#4435
0&
1!
#4440
1%
1$
b101110 #
0!
#4445
1!
#4450
0(
b10 '
b101110 "
0%
0!
#4455
1&
1!
#4460
1%
0$
0!
#4465
1(
b1 '
1!
#4470
0%
0!
#4475
0&
1!
#4480
1%
1$
b101111 #
0!
#4485
1!
#4490
0(
b10 '
b101111 "
0%
0!
#4495
1&
1!
#4500
1%
0$
0!
#4505
1(
b1 '
1!
#4510
0%
0!
#4515
0&
1!
#4520
1%
1$
b110000 #
0!
#4525
1!
#4530
0(
b10 '
b110000 "
0%
0!
#4535
1&
1!
#4540
1%
0$
0!
#4545
1(
b1 '
1!
#4550
0%
0!
#4555
0&
1!
#4560
1%
1$
b110001 #
0!
#4565
1!
#4570
0(
b10 '
b110001 "
0%
0!
#4575
1&
1!
#4580
1%
0$
0!
#4585
1(
b1 '
1!
#4590
0%
0!
#4595
0&
1!
#4600
1%
1$
b110010 #
0!
#4605
1!
#4610
0(
b10 '
b110010 "
0%
0!
#4615
1&
1!
#4620
1%
0$
0!
#4625
1(
b1 '
1!
#4630
0%
0!
#4635
0&
1!
#4640
1%
1$
b110011 #
0!
#4645
1!
#4650
0(
b10 '
b110011 "
0%
0!
#4655
1&
1!
#4660
1%
0$
0!
#4665
1(
b1 '
1!
#4670
0%
0!
#4675
0&
1!
#4680
1%
1$
b110100 #
0!
#4685
1!
#4690
0(
b10 '
b110100 "
0%
0!
#4695
1&
1!
#4700
1%
0$
0!
#4705
1(
b1 '
1!
#4710
0%
0!
#4715
0&
1!
#4720
1%
1$
b110101 #
0!
#4725
1!
#4730
0(
b10 '
b110101 "
0%
0!
#4735
1&
1!
#4740
1%
0$
0!
#4745
1(
b1 '
1!
#4750
0%
0!
#4755
0&
1!
#4760
1%
1$
b110110 #
0!
#4765
1!
#4770
0(
b10 '
b110110 "
0%
0!
#4775
1&
1!
#4780
1%
0$
0!
#4785
1(
b1 '
1!
#4790
0%
0!
#4795
0&
1!
#4800
1%
1$
b110111 #
0!
#4805
1!
#4810
0(
b10 '
b110111 "
0%
0!
#4815
1&
1!
#4820
1%
0$
0!
#4825
1(
b1 '
1!
#4830
0%
0!
#4835
0&
1!
#4840
1%
1$
b111000 #
0!
#4845
1!
#4850
0(
b10 '
b111000 "
0%
0!
#4855
1&
1!
#4860
1%
0$
0!
#4865
1(
b1 '
1!
#4870
0%
0!
#4875
0&
1!
#4880
1%
1$
b111001 #
0!
#4885
1!
#4890
0(
b10 '
b111001 "
0%
0!
#4895
1&
1!
#4900
1%
0$
0!
#4905
1(
b1 '
1!
#4910
0%
0!
#4915
0&
1!
#4920
1%
1$
b111010 #
0!
#4925
1!
#4930
0(
b10 '
b111010 "
0%
0!
#4935
1&
1!
#4940
1%
0$
0!
#4945
1(
b1 '
1!
#4950
0%
0!
#4955
0&
1!
#4960
1%
1$
b111011 #
0!
#4965
1!
#4970
0(
b10 '
b111011 "
0%
0!
#4975
1&
1!
#4980
1%
0$
0!
#4985
1(
b1 '
1!
#4990
0%
0!
#4995
0&
1!
#5000
1%
1$
b111100 #
0!
#5005
1!
#5010
0(
b10 '
b111100 "
0%
0!
#5015
1&
1!
#5020
1%
0$
0!
#5025
1(
b1 '
1!
#5030
0%
0!
#5035
0&
1!
#5040
1%
1$
b111101 #
0!
#5045
1!
#5050
0(
b10 '
b111101 "
0%
0!
#5055
1&
1!
#5060
1%
0$
0!
#5065
1(
b1 '
1!
#5070
0%
0!
#5075
0&
1!
#5080
1%
1$
b111110 #
0!
#5085
1!
#5090
0(
b10 '
b111110 "
0%
0!
#5095
1&
1!
#5100
1%
0$
0!
#5105
1(
b1 '
1!
#5110
0%
0!
#5115
0&
1!
#5120
1%
1$
b111111 #
0!
#5125
1!
#5130
0(
b10 '
b111111 "
0%
0!
#5135
1&
1!
#5140
1%
0$
0!
#5145
1(
b1 '
1!
#5150
0%
0!
#5155
0&
1!
#5160
1%
1$
b1000000 #
0!
#5165
1!
#5170
0(
b10 '
b1000000 "
0%
0!
#5175
1&
1!
#5180
1%
0$
0!
#5185
1(
b1 '
1!
#5190
0%
0!
#5195
0&
1!
#5200
1%
1$
b1000001 #
0!
#5205
1!
#5210
0(
b10 '
b1000001 "
0%
0!
#5215
1&
1!
#5220
1%
0$
0!
#5225
1(
b1 '
1!
#5230
0%
0!
#5235
0&
1!
#5240
1%
1$
b1000010 #
0!
#5245
1!
#5250
0(
b10 '
b1000010 "
0%
0!
#5255
1&
1!
#5260
1%
0$
0!
#5265
1(
b1 '
1!
#5270
0%
0!
#5275
0&
1!
#5280
1%
1$
b1000011 #
0!
#5285
1!
#5290
0(
b10 '
b1000011 "
0%
0!
#5295
1&
1!
#5300
1%
0$
0!
#5305
1(
b1 '
1!
#5310
0%
0!
#5315
0&
1!
#5320
1%
1$
b1000100 #
0!
#5325
1!
#5330
0(
b10 '
b1000100 "
0%
0!
#5335
1&
1!
#5340
1%
0$
0!
#5345
1(
b1 '
1!
#5350
0%
0!
#5355
0&
1!
#5360
1%
1$
b1000101 #
0!
#5365
1!
#5370
0(
b10 '
b1000101 "
0%
0!
#5375
1&
1!
#5380
1%
0$
0!
#5385
1(
b1 '
1!
#5390
0%
0!
#5395
0&
1!
#5400
1%
1$
b1000110 #
0!
#5405
1!
#5410
0(
b10 '
b1000110 "
0%
0!
#5415
1&
1!
#5420
1%
0$
0!
#5425
1(
b1 '
1!
#5430
0%
0!
#5435
0&
1!
#5440
1%
1$
b1000111 #
0!
#5445
1!
#5450
0(
b10 '
b1000111 "
0%
0!
#5455
1&
1!
#5460
1%
0$
0!
#5465
1(
b1 '
1!
#5470
0%
0!
#5475
0&
1!
#5480
1%
1$
b1001000 #
0!
#5485
1!
#5490
0(
b10 '
b1001000 "
0%
0!
#5495
1&
1!
#5500
1%
0$
0!
#5505
1(
b1 '
1!
#5510
0%
0!
#5515
0&
1!
#5520
1%
1$
b1001001 #
0!
#5525
1!
#5530
0(
b10 '
b1001001 "
0%
0!
#5535
1&
1!
#5540
1%
0$
0!
#5545
1(
b1 '
1!
#5550
0%
0!
#5555
0&
1!
#5560
1%
1$
b1001010 #
0!
#5565
1!
#5570
0(
b10 '
b1001010 "
0%
0!
#5575
1&
1!
#5580
1%
0$
0!
#5585
1(
b1 '
1!
#5590
0%
0!
#5595
0&
1!
#5600
1%
1$
b1001011 #
0!
#5605
1!
#5610
0(
b10 '
b1001011 "
0%
0!
#5615
1&
1!
#5620
1%
0$
0!
#5625
1(
b1 '
1!
#5630
0%
0!
#5635
0&
1!
#5640
1%
1$
b1001100 #
0!
#5645
1!
#5650
0(
b10 '
b1001100 "
0%
0!
#5655
1&
1!
#5660
1%
0$
0!
#5665
1(
b1 '
1!
#5670
0%
0!
#5675
0&
1!
#5680
1%
1$
b1001101 #
0!
#5685
1!
#5690
0(
b10 '
b1001101 "
0%
0!
#5695
1&
1!
#5700
1%
0$
0!
#5705
1(
b1 '
1!
#5710
0%
0!
#5715
0&
1!
#5720
1%
1$
b1001110 #
0!
#5725
1!
#5730
0(
b10 '
b1001110 "
0%
0!
#5735
1&
1!
#5740
1%
0$
0!
#5745
1(
b1 '
1!
#5750
0%
0!
#5755
0&
1!
#5760
1%
1$
b1001111 #
0!
#5765
1!
#5770
0(
b10 '
b1001111 "
0%
0!
#5775
1&
1!
#5780
1%
0$
0!
#5785
1(
b1 '
1!
#5790
0%
0!
#5795
0&
1!
#5800
1%
1$
b1010000 #
0!
#5805
1!
#5810
0(
b10 '
b1010000 "
0%
0!
#5815
1&
1!
#5820
1%
0$
0!
#5825
1(
b1 '
1!
#5830
0%
0!
#5835
0&
1!
#5840
1%
1$
b1010001 #
0!
#5845
1!
#5850
0(
b10 '
b1010001 "
0%
0!
#5855
1&
1!
#5860
1%
0$
0!
#5865
1(
b1 '
1!
#5870
0%
0!
#5875
0&
1!
#5880
1%
1$
b1010010 #
0!
#5885
1!
#5890
0(
b10 '
b1010010 "
0%
0!
#5895
1&
1!
#5900
1%
0$
0!
#5905
1(
b1 '
1!
#5910
0%
0!
#5915
0&
1!
#5920
1%
1$
b1010011 #
0!
#5925
1!
#5930
0(
b10 '
b1010011 "
0%
0!
#5935
1&
1!
#5940
1%
0$
0!
#5945
1(
b1 '
1!
#5950
0%
0!
#5955
0&
1!
#5960
1%
1$
b1010100 #
0!
#5965
1!
#5970
0(
b10 '
b1010100 "
0%
0!
#5975
1&
1!
#5980
1%
0$
0!
#5985
1(
b1 '
1!
#5990
0%
0!
#5995
0&
1!
#6000
1%
1$
b1010101 #
0!
#6005
1!
#6010
0(
b10 '
b1010101 "
0%
0!
#6015
1&
1!
#6020
1%
0$
0!
#6025
1(
b1 '
1!
#6030
0%
0!
#6035
0&
1!
#6040
1%
1$
b1010110 #
0!
#6045
1!
#6050
0(
b10 '
b1010110 "
0%
0!
#6055
1&
1!
#6060
1%
0$
0!
#6065
1(
b1 '
1!
#6070
0%
0!
